Group_1_Project
…
volcano$major_rock_5<-as.factor(volcano$major_rock_5)
volcano$minor_rock_1<-as.factor(volcano$minor_rock_1)
volcano$minor_rock_2<-as.factor(volcano$minor_rock_2)
volcano$minor_rock_3<-as.factor(volcano$minor_rock_3)
volcano$minor_rock_4<-as.factor(volcano$minor_rock_4)
volcano$minor_rock_5<-as.factor(volcano$minor_rock_5)
volcano$last_eruption_year<-as.numeric(gsub("Unknown", NA, volcano$last_eruption_year))
volcano<-volcano%>%
  arrange(primary_volcano_type, last_eruption_year, elevation)%>%
  mutate(years_ago=2020-last_eruption_year)
ordered_columns<-c("volcano_number", "volcano_name", "region", "subregion", "country", "latitude", "longitude", "tectonic_settings", "primary_volcano_type", "elevation", "last_eruption_year", "years_ago", "evidence_category", "population_within_5_km","population_within_10_km","population_within_30_km","population_within_100_km", "major_rock_1","major_rock_2","major_rock_3","major_rock_4","major_rock_5","minor_rock_1","minor_rock_2","minor_rock_3","minor_rock_4","minor_rock_5")
volcano<-volcano[ordered_columns]
volcano

## # A tibble: 958 x 27
##    volcano_number volcano_name region subregion country latitude longitude
##             <dbl> <chr>        <fct>  <fct>     <fct>      <dbl>     <dbl>
##  1         300023 Kurile Lake  Kamch~ Kamchatk~ Russia      51.4     157. 
##  2         341093 Humeros, Los MÃ©xic~ Mexico    Mexico      19.7     -97.4
##  3         242021 Macauley     New Z~ Kermadec~ New Ze~    -30.2    -178. 
##  4         341061 Zitacuaro-V~ MÃ©xic~ Mexico    Mexico      19.4    -100. 
##  5         322160 Crater Lake  Canad~ USA (Ore~ United~     42.9    -122. 
##  6         355210 Blanco, Cer~ South~ Northern~ Argent~    -26.8     -67.8
##  7         213004 Acigol-Nevs~ Medit~ Turkey    Turkey      38.5      34.6
##  8         325010 Yellowstone  Canad~ USA (Wyo~ United~     44.4    -111. 
##  9         211003 Vulsini      Medit~ Italy     Italy       42.6      11.9
## 10         357061 Maule, Lagu~ South~ Central ~ Chile      -36.1     -70.5
## # ... with 948 more rows, and 20 more variables: tectonic_settings <fct>,
## #   primary_volcano_type <fct>, elevation <dbl>, last_eruption_year <dbl>,
## #   years_ago <dbl>, evidence_category <fct>, population_within_5_km <dbl>,
## #   population_within_10_km <dbl>, population_within_30_km <dbl>,
## #   population_within_100_km <dbl>, major_rock_1 <fct>, major_rock_2 <fct>,
## #   major_rock_3 <fct>, major_rock_4 <fct>, major_rock_5 <fct>,
## #   minor_rock_1 <fct>, minor_rock_2 <fct>, minor_rock_3 <fct>,
## #   minor_rock_4 <fct>, minor_rock_5 <fct>
…
